Digging Deeper: More R Features and Workflows
…
# Row with the highest avg_annual_wage
oregon_qcew |> slice_max(avg_annual_wage, n = 1)

# A tibble: 1 × 6
  county       naics establishments avg_employment avg_wkly_wage avg_annual_wage
  <chr>        <dbl>          <dbl>          <dbl>         <dbl>           <dbl>
1 Deschutes … 522291              6             26         12514          650728

# Row with the lowest avg_annual_wage
oregon_qcew |> slice_min(avg_annual_wage, n = 1)

# A tibble: 9,501 × 6
   county      naics establishments avg_employment avg_wkly_wage avg_annual_wage
   <chr>       <dbl>          <dbl>          <dbl>         <dbl>           <dbl>
 1 Baker Cou… 111140              1              0             0               0
 2 Baker Cou… 111211              6              0             0               0
 3 Baker Cou… 111219              1              0             0               0
 4 Baker Cou… 111421              2              0             0               0
 5 Baker Cou… 111940              1              0             0               0
 6 Baker Cou… 111998              4              0             0               0
 7 Baker Cou… 112111             22              0             0               0
 8 Baker Cou… 112910              1              0             0               0
 9 Baker Cou… 112990              1              0             0               0
10 Baker Cou… 113310              3              0             0               0
# ℹ 9,491 more rows
…
